CREATE TABLE TBL1 (
  ID VARCHAR(10)
)\\

CREATE TABLE TBL2 (
  ID VARCHAR(10)
)\\

INSERT INTO TBL1 VALUES ('1')\\
INSERT INTO TBL1 VALUES ('2')\\
INSERT INTO TBL1 VALUES ('3')\\
INSERT INTO TBL1 VALUES ('4')\\
INSERT INTO TBL2 VALUES ('6')\\

INSERT INTO TBL2 VALUES ('1')\\
INSERT INTO TBL2 VALUES ('2')\\
INSERT INTO TBL2 VALUES ('3')\\
INSERT INTO TBL2 VALUES ('4')\\
INSERT INTO TBL2 VALUES ('5')\\

SELECT A.ID, B.ID
FROM TBL1 A FULL OUTER JOIN TBL2 B
ON A.ID = B.ID\\
=> (1,1)
   (2,2)
   (3,3)
   (4,4)
   (N,6) -- N = NULL
   (N,5)

SELECT A.ID, B.ID
FROM TBL1 A LEFT OUTER JOIN TBL2 B
ON A.ID=B.ID\\
=>(1,1)
  (2,2)
  (3,3)
  (4,4)

SELECT A.ID, B.ID
FROM TBL1 A RIGHT OUTER JOIN TBL2 B
ON A.ID=B.ID\\
=> (1,1)
   (2,2)
   (3,3)
   (4,4)
   (N,6)
   (N,5)

SELECT A.ID, B.ID
FROM TBL1 A LEFT OUTER JOIN TBL2 B
ON A.ID=B.ID
UNION
SELECT A.ID, B.ID
FROM TBL1 A RIGHT OUTER JOIN TBL2 B
ON A.ID=B.ID
=> (1,1)
   (2,2)
   (3,3)
   (4,4)
   (N,6)
   (N,5)
   
SELECT A.ID, B.ID
FROM TBL1 A, TBL2 B
WHERE A.ID = B.ID
=> (1,1)
   (2,2)
   (3,3)
   (4,4)
 
SELECT A.ID, NULL
FROM TBL1 A
WHERE NOT EXISTS (SELECT 1 FROM TBL2 WHERE A.ID=B.ID)
=> (N,6) 
   (N,5)
  
SELECT NULL, B.ID
FROM TBL2 B
WHERE NOT EXISTS (SELECT 1 FROM TBL1 A WHERE B.ID=A.ID)\\
=> (1,1)
   (2,2)
   (3,3)
   (4,4)
   (N,6)
   (N,5)
  
SELECT A.ID, B.ID
FROM TBL1 A, TBL2 B
WHERE A.ID = B.ID
UNION ALL
SELECT A.ID, NULL
FROM TBL1 A
WHERE NOT EXISTS (SELECT 1 FROM TBL2 WHERE A.ID=B.ID)
UNION ALL
SELECT NULL, B.ID
FROM TBL2 B
WHERE NOT EXISTS (SELECT 1 FROM TBL1 A WHERE B.ID=A.ID)\\
=> (1,1)
   (2,2)
   (3,3)
   (4,4)
   (N,6)
   (N,5)  